…
```r
#csv %>%
 # ggplot(mapping = aes(x = year, y = bls_leis)) + 
 # geom_jitter(alpha = 0.01)
```



```
## # A tibble: 216,683 x 44
##     year  caseid pernum lineno    wt06  wt20   age   sex race_~1 code_~2 code_~3
##    <dbl>   <dbl>  <dbl>  <dbl>   <dbl> <dbl> <dbl> <dbl>   <dbl>   <dbl>   <dbl>
##  1  2003 2.00e13      1      1  8.16e6    NA    60     1     110       1      41
##  2  2003 2.00e13      1      1  1.74e6    NA    41     2     100       1      30
##  3  2003 2.00e13      1      1  3.83e6    NA    26     2     100       2      31
##  4  2003 2.00e13      1      1  6.62e6    NA    36     2     110       1      21
##  5  2003 2.00e13      1      1  3.07e6    NA    51     1     100       1      42
##  6  2003 2.00e13      1      1  3.46e6    NA    32     2     100       4      40
##  7  2003 2.00e13      1      1  1.64e6    NA    44     2     100       3      21
##  8  2003 2.00e13      1      1  6.57e6    NA    21     2     100       6      30
##  9  2003 2.00e13      1      1  1.53e6    NA    33     2     100       1      31
## 10  2003 2.00e13      1      1  4.28e6    NA    39     2     110       1      31
## # ... with 216,673 more rows, 33 more variables: educyrs <dbl>, fullpart <dbl>,
## #   earnweek <dbl>, eldch <dbl>, yngch <dbl>, nchild <dbl>, bls_carehh <dbl>,
## #   bls_comm <dbl>, bls_educ <dbl>, bls_food <dbl>, bls_hhact <dbl>,
## #   bls_leis <dbl>, bls_leis_arts <dbl>, bls_leis_attend <dbl>,
## #   bls_leis_attsport <dbl>, bls_leis_partsport <dbl>, bls_leis_relax <dbl>,
## #   bls_leis_soc <dbl>, bls_leis_soccom <dbl>, bls_leis_soccomex <dbl>,
## #   bls_leis_sport <dbl>, bls_leis_travel <dbl>, bls_leis_tv <dbl>, ...
```
…
```
## # A tibble: 216,683 x 44
##     year  caseid pernum lineno    wt06  wt20   age   sex race_~1 code_~2 code_~3
##    <dbl>   <dbl>  <dbl>  <dbl>   <dbl> <dbl> <dbl> <dbl>   <dbl>   <dbl>   <dbl>
##  1  2003 2.00e13      1      1  8.16e6    NA    60     1     110       1      41
##  2  2003 2.00e13      1      1  1.74e6    NA    41     2     100       1      30
##  3  2003 2.00e13      1      1  3.83e6    NA    26     2     100       2      31
##  4  2003 2.00e13      1      1  6.62e6    NA    36     2     110       1      21
##  5  2003 2.00e13      1      1  3.07e6    NA    51     1     100       1      42
##  6  2003 2.00e13      1      1  3.46e6    NA    32     2     100       4      40
##  7  2003 2.00e13      1      1  1.64e6    NA    44     2     100       3      21
##  8  2003 2.00e13      1      1  6.57e6    NA    21     2     100       6      30
##  9  2003 2.00e13      1      1  1.53e6    NA    33     2     100       1      31
## 10  2003 2.00e13      1      1  4.28e6    NA    39     2     110       1      31
## # ... with 216,673 more rows, 33 more variables: educyrs <dbl>, fullpart <dbl>,
## #   earnweek <dbl>, eldch <dbl>, yngch <dbl>, nchild <dbl>, bls_carehh <dbl>,
## #   bls_comm <dbl>, bls_educ <dbl>, bls_food <dbl>, bls_hhact <dbl>,
## #   bls_leis <dbl>, bls_leis_arts <dbl>, bls_leis_attend <dbl>,
## #   bls_leis_attsport <dbl>, bls_leis_partsport <dbl>, bls_leis_relax <dbl>,
## #   bls_leis_soc <dbl>, bls_leis_soccom <dbl>, bls_leis_soccomex <dbl>,
## #   bls_leis_sport <dbl>, bls_leis_travel <dbl>, bls_leis_tv <dbl>, ...
```

```
## # A tibble: 216,683 x 45
##     year  caseid pernum lineno    wt06  wt20   age   sex race_~1 code_~2 code_~3
##    <dbl>   <dbl>  <dbl>  <dbl>   <dbl> <dbl> <dbl> <dbl>   <dbl>   <dbl>   <dbl>
##  1  2003 2.00e13      1      1  8.16e6    NA    60     1     110       1      41
##  2  2003 2.00e13      1      1  1.74e6    NA    41     2     100       1      30
##  3  2003 2.00e13      1      1  3.83e6    NA    26     2     100       2      31
##  4  2003 2.00e13      1      1  6.62e6    NA    36     2     110       1      21
##  5  2003 2.00e13      1      1  3.07e6    NA    51     1     100       1      42
##  6  2003 2.00e13      1      1  3.46e6    NA    32     2     100       4      40
##  7  2003 2.00e13      1      1  1.64e6    NA    44     2     100       3      21
##  8  2003 2.00e13      1      1  6.57e6    NA    21     2     100       6      30
##  9  2003 2.00e13      1      1  1.53e6    NA    33     2     100       1      31
## 10  2003 2.00e13      1      1  4.28e6    NA    39     2     110       1      31
## # ... with 216,673 more rows, 34 more variables: educyrs <dbl>, fullpart <dbl>,
## #   earnweek <dbl>, eldch <dbl>, yngch <dbl>, nchild <dbl>, bls_carehh <dbl>,
## #   bls_comm <dbl>, bls_educ <dbl>, bls_food <dbl>, bls_hhact <dbl>,
## #   bls_leis <dbl>, bls_leis_arts <dbl>, bls_leis_attend <dbl>,
## #   bls_leis_attsport <dbl>, bls_leis_partsport <dbl>, bls_leis_relax <dbl>,
## #   bls_leis_soc <dbl>, bls_leis_soccom <dbl>, bls_leis_soccomex <dbl>,
## #   bls_leis_sport <dbl>, bls_leis_travel <dbl>, bls_leis_tv <dbl>, ...
```
…
```
## # A tibble: 216,683 x 45
##     year  caseid pernum lineno    wt06  wt20   age   sex race_~1 code_~2 code_~3
##    <dbl>   <dbl>  <dbl>  <dbl>   <dbl> <dbl> <dbl> <dbl>   <dbl>   <dbl>   <dbl>
##  1  2003 2.00e13      1      1  8.16e6    NA    60     1     110       1      41
##  2  2003 2.00e13      1      1  1.74e6    NA    41     2     100       1      30
##  3  2003 2.00e13      1      1  3.83e6    NA    26     2     100       2      31
##  4  2003 2.00e13      1      1  6.62e6    NA    36     2     110       1      21
##  5  2003 2.00e13      1      1  3.07e6    NA    51     1     100       1      42
##  6  2003 2.00e13      1      1  3.46e6    NA    32     2     100       4      40
##  7  2003 2.00e13      1      1  1.64e6    NA    44     2     100       3      21
##  8  2003 2.00e13      1      1  6.57e6    NA    21     2     100       6      30
##  9  2003 2.00e13      1      1  1.53e6    NA    33     2     100       1      31
## 10  2003 2.00e13      1      1  4.28e6    NA    39     2     110       1      31
## # ... with 216,673 more rows, 34 more variables: educyrs <dbl>, fullpart <dbl>,
## #   earnweek <dbl>, eldch <dbl>, yngch <dbl>, nchild <dbl>, bls_carehh <dbl>,
## #   bls_comm <dbl>, bls_educ <dbl>, bls_food <dbl>, bls_hhact <dbl>,
## #   bls_leis <dbl>, bls_leis_arts <dbl>, bls_leis_attend <dbl>,
## #   bls_leis_attsport <dbl>, bls_leis_partsport <dbl>, bls_leis_relax <dbl>,
## #   bls_leis_soc <dbl>, bls_leis_soccom <dbl>, bls_leis_soccomex <dbl>,
## #   bls_leis_sport <dbl>, bls_leis_travel <dbl>, bls_leis_tv <dbl>, ...
```
…
